Grading Rubric for HW04


Two Files were created CrapsIf.java                          10 pts

                                      CrapsSwitch.java

-- yea

Random Code						 10 pts

--nice

User provided input					 2 pts

-- you didnt check if the inputed number was between the bounds.

Determine Slang					 20 pts

-- good

Print the Slang					 10 pts

-- nice

Comments						 10 pts

-- looks good

Compiles						 30 pts 

-- yep

Total: 92%